%YAML 1.1
%TAG !u! tag:unity3d.com,2011:
--- !u!114 &11400000
MonoBehaviour:
  m_ObjectHideFlags: 0
  m_CorrespondingSourceObject: {fileID: 0}
  m_PrefabInstance: {fileID: 0}
  m_PrefabAsset: {fileID: 0}
  m_GameObject: {fileID: 0}
  m_Enabled: 1
  m_EditorHideFlags: 0
  m_Script: {fileID: 11500000, guid: 454c7f8de1e6c48a58d9907796519399, type: 3}
  m_Name: 427AF0E3-B3ED-4C29-8A0E-11B6E5DF8AEE
  m_EditorClassIdentifier: 
  objectName: Play_UI_Action_Success
  id: 2125888985
  guid: 427AF0E3-B3ED-4C29-8A0E-11B6E5DF8AEE
