%YAML 1.1
%TAG !u! tag:unity3d.com,2011:
--- !u!114 &11400000
MonoBehaviour:
  m_ObjectHideFlags: 0
  m_CorrespondingSourceObject: {fileID: 0}
  m_PrefabInstance: {fileID: 0}
  m_PrefabAsset: {fileID: 0}
  m_GameObject: {fileID: 0}
  m_Enabled: 1
  m_EditorHideFlags: 0
  m_Script: {fileID: 11500000, guid: 454c7f8de1e6c48a58d9907796519399, type: 3}
  m_Name: 65161FD8-473D-45F9-B46E-DCE2067622DD
  m_EditorClassIdentifier: 
  objectName: Play_AMB_Ambience_Menu
  id: 1323989005
  guid: 65161FD8-473D-45F9-B46E-DCE2067622DD
