{
  "ServerActionCasesDatas": 
  [
  {
    "ServerID": "server_lj",
    "ActionCaseID": "action_case_lj_1",
    "ActionCaseOrder": 1,
    "TriggerDate": "",
    "TriggerRebelOver": 0,
    "TriggerRebelUnder": 0,
    "TriggerLoyalOver": 0,
    "TriggerLoyalUnder": 0,
    "TriggerSignal": "null"
  },
  {
    "ServerID": "server_lj",
    "ActionCaseID": "action_case_lj_2",
    "ActionCaseOrder": 2,
    "TriggerDate": "2002/01",
    "TriggerRebelOver": 0,
    "TriggerRebelUnder": 0,
    "TriggerLoyalOver": 0,
    "TriggerLoyalUnder": 0,
    "TriggerSignal": "null"
  },
  {
    "ServerID": "server_lj",
    "ActionCaseID": "action_case_lj_3",
    "ActionCaseOrder": 3,
    "TriggerDate": "2005/01",
    "TriggerRebelOver": 0,
    "TriggerRebelUnder": 0,
    "TriggerLoyalOver": 0,
    "TriggerLoyalUnder": 0,
    "TriggerSignal": "trigger_project_dpi_implemented"
  },
  {
    "ServerID": "server_lj",
    "ActionCaseID": "action_case_lj_4",
    "ActionCaseOrder": 4,
    "TriggerDate": "",
    "TriggerRebelOver": 0,
    "TriggerRebelUnder": 0,
    "TriggerLoyalOver": 0,
    "TriggerLoyalUnder": 0,
    "TriggerSignal": "server_lj_result"
  },
  {
    "ServerID": "server_mail",
    "ActionCaseID": "action_case_mail_1",
    "ActionCaseOrder": 1,
    "TriggerDate": "",
    "TriggerRebelOver": 0,
    "TriggerRebelUnder": 0,
    "TriggerLoyalOver": 0,
    "TriggerLoyalUnder": 0,
    "TriggerSignal": "null"
  },
  {
    "ServerID": "server_lenta",
    "ActionCaseID": "action_case_lenta_1",
    "ActionCaseOrder": 1,
    "TriggerDate": "",
    "TriggerRebelOver": 0,
    "TriggerRebelUnder": 0,
    "TriggerLoyalOver": 0,
    "TriggerLoyalUnder": 0,
    "TriggerSignal": "null"
  },
  {
    "ServerID": "server_yandex",
    "ActionCaseID": "action_case_yandex_1",
    "ActionCaseOrder": 1,
    "TriggerDate": "",
    "TriggerRebelOver": 0,
    "TriggerRebelUnder": 0,
    "TriggerLoyalOver": 0,
    "TriggerLoyalUnder": 0,
    "TriggerSignal": "null"
  },
  {
    "ServerID": "server_rambler",
    "ActionCaseID": "action_case_rambler_1",
    "ActionCaseOrder": 1,
    "TriggerDate": "",
    "TriggerRebelOver": 0,
    "TriggerRebelUnder": 0,
    "TriggerLoyalOver": 0,
    "TriggerLoyalUnder": 0,
    "TriggerSignal": "null"
  },
  {
    "ServerID": "server_vk",
    "ActionCaseID": "action_case_vk_1",
    "ActionCaseOrder": 1,
    "TriggerDate": "",
    "TriggerRebelOver": 0,
    "TriggerRebelUnder": 0,
    "TriggerLoyalOver": 0,
    "TriggerLoyalUnder": 0,
    "TriggerSignal": "null"
  },
  {
    "ServerID": "server_ok",
    "ActionCaseID": "action_case_ok_1",
    "ActionCaseOrder": 1,
    "TriggerDate": "",
    "TriggerRebelOver": 0,
    "TriggerRebelUnder": 0,
    "TriggerLoyalOver": 0,
    "TriggerLoyalUnder": 0,
    "TriggerSignal": "null"
  },
  {
    "ServerID": "server_subscribe",
    "ActionCaseID": "action_case_server_subscribe_1",
    "ActionCaseOrder": 1,
    "TriggerDate": "",
    "TriggerRebelOver": 0,
    "TriggerRebelUnder": 0,
    "TriggerLoyalOver": 0,
    "TriggerLoyalUnder": 0,
    "TriggerSignal": "null"
  },
  {
    "ServerID": "server_rbc",
    "ActionCaseID": "action_case_server_rbc_1",
    "ActionCaseOrder": 1,
    "TriggerDate": "",
    "TriggerRebelOver": 0,
    "TriggerRebelUnder": 0,
    "TriggerLoyalOver": 0,
    "TriggerLoyalUnder": 0,
    "TriggerSignal": "null"
  },
  {
    "ServerID": "server_gazeta",
    "ActionCaseID": "action_case_server_gazeta_1",
    "ActionCaseOrder": 1,
    "TriggerDate": "",
    "TriggerRebelOver": 0,
    "TriggerRebelUnder": 0,
    "TriggerLoyalOver": 0,
    "TriggerLoyalUnder": 0,
    "TriggerSignal": "null"
  },
  {
    "ServerID": "server_vedomosti",
    "ActionCaseID": "action_case_server_vedomosti_1",
    "ActionCaseOrder": 1,
    "TriggerDate": "",
    "TriggerRebelOver": 0,
    "TriggerRebelUnder": 0,
    "TriggerLoyalOver": 0,
    "TriggerLoyalUnder": 0,
    "TriggerSignal": "null"
  },
  {
    "ServerID": "server_narod",
    "ActionCaseID": "action_case_server_narod_1",
    "ActionCaseOrder": 1,
    "TriggerDate": "",
    "TriggerRebelOver": 0,
    "TriggerRebelUnder": 0,
    "TriggerLoyalOver": 0,
    "TriggerLoyalUnder": 0,
    "TriggerSignal": "trigger_project_dpi_implemented"
  },
  {
    "ServerID": "server_rutracker",
    "ActionCaseID": "action_case_server_rutracker_1",
    "ActionCaseOrder": 1,
    "TriggerDate": "",
    "TriggerRebelOver": 0,
    "TriggerRebelUnder": 0,
    "TriggerLoyalOver": 0,
    "TriggerLoyalUnder": 0,
    "TriggerSignal": "trigger_project_dpi_implemented"
  },
  {
    "ServerID": "server_habr",
    "ActionCaseID": "action_case_server_habr_1",
    "ActionCaseOrder": 1,
    "TriggerDate": "",
    "TriggerRebelOver": 0,
    "TriggerRebelUnder": 0,
    "TriggerLoyalOver": 0,
    "TriggerLoyalUnder": 0,
    "TriggerSignal": "trigger_project_dpi_implemented"
  },
  {
    "ServerID": "server_pikabu",
    "ActionCaseID": "action_case_server_pikabu_1",
    "ActionCaseOrder": 1,
    "TriggerDate": "",
    "TriggerRebelOver": 0,
    "TriggerRebelUnder": 0,
    "TriggerLoyalOver": 0,
    "TriggerLoyalUnder": 0,
    "TriggerSignal": "trigger_project_dpi_implemented"
  },
  {
    "ServerID": "server_google",
    "ActionCaseID": "action_case_google_1",
    "ActionCaseOrder": 1,
    "TriggerDate": "",
    "TriggerRebelOver": 0,
    "TriggerRebelUnder": 0,
    "TriggerLoyalOver": 0,
    "TriggerLoyalUnder": 0,
    "TriggerSignal": "trigger_project_dpi_implemented"
  },
  {
    "ServerID": "server_youtube",
    "ActionCaseID": "action_case_youtube_1",
    "ActionCaseOrder": 1,
    "TriggerDate": "",
    "TriggerRebelOver": 0,
    "TriggerRebelUnder": 0,
    "TriggerLoyalOver": 0,
    "TriggerLoyalUnder": 0,
    "TriggerSignal": "trigger_project_dpi_implemented"
  },
  {
    "ServerID": "server_wiki",
    "ActionCaseID": "action_case_server_wiki_1",
    "ActionCaseOrder": 1,
    "TriggerDate": "",
    "TriggerRebelOver": 0,
    "TriggerRebelUnder": 0,
    "TriggerLoyalOver": 0,
    "TriggerLoyalUnder": 0,
    "TriggerSignal": "trigger_project_dpi_implemented"
  },
  {
    "ServerID": "server_facebook",
    "ActionCaseID": "action_case_server_facebook_1",
    "ActionCaseOrder": 1,
    "TriggerDate": "",
    "TriggerRebelOver": 0,
    "TriggerRebelUnder": 0,
    "TriggerLoyalOver": 0,
    "TriggerLoyalUnder": 0,
    "TriggerSignal": "trigger_project_dpi_implemented"
  },
  {
    "ServerID": "server_reddit",
    "ActionCaseID": "action_case_server_reddit_1",
    "ActionCaseOrder": 1,
    "TriggerDate": "",
    "TriggerRebelOver": 0,
    "TriggerRebelUnder": 0,
    "TriggerLoyalOver": 0,
    "TriggerLoyalUnder": 0,
    "TriggerSignal": "trigger_project_dpi_implemented"
  },
  {
    "ServerID": "server_instagram",
    "ActionCaseID": "action_case_server_instagram_1",
    "ActionCaseOrder": 1,
    "TriggerDate": "",
    "TriggerRebelOver": 0,
    "TriggerRebelUnder": 0,
    "TriggerLoyalOver": 0,
    "TriggerLoyalUnder": 0,
    "TriggerSignal": "trigger_project_dpi_implemented"
  }
]
}