%YAML 1.1
%TAG !u! tag:unity3d.com,2011:
--- !u!114 &11400000
MonoBehaviour:
  m_ObjectHideFlags: 0
  m_CorrespondingSourceObject: {fileID: 0}
  m_PrefabInstance: {fileID: 0}
  m_PrefabAsset: {fileID: 0}
  m_GameObject: {fileID: 0}
  m_Enabled: 1
  m_EditorHideFlags: 0
  m_Script: {fileID: 11500000, guid: 1096becf7036b46e1bbf580414245f33, type: 3}
  m_Name: 0346C2DF-EAB9-487C-9A5E-3830D94A84DD
  m_EditorClassIdentifier: 
  objectName: Game_Win
  id: 3218375656
  guid: 0346C2DF-EAB9-487C-9A5E-3830D94A84DD
  WwiseStateGroupReference: {fileID: 11400000, guid: 8aa89e0d530b74c359831f38cd72dfb0, type: 2}
