%YAML 1.1
%TAG !u! tag:unity3d.com,2011:
--- !u!114 &11400000
MonoBehaviour:
  m_ObjectHideFlags: 0
  m_CorrespondingSourceObject: {fileID: 0}
  m_PrefabInstance: {fileID: 0}
  m_PrefabAsset: {fileID: 0}
  m_GameObject: {fileID: 0}
  m_Enabled: 1
  m_EditorHideFlags: 0
  m_Script: {fileID: 11500000, guid: 1096becf7036b46e1bbf580414245f33, type: 3}
  m_Name: 3EE6DD75-97C4-4515-820A-A822FB03B5FC
  m_EditorClassIdentifier: 
  objectName: Volume_Sfx_On
  id: 994012525
  guid: 3EE6DD75-97C4-4515-820A-A822FB03B5FC
  WwiseStateGroupReference: {fileID: 11400000, guid: ec19a5c79163943a090659b01f166ba5, type: 2}
